CMSC 320 Final Project Spring 2019
…
We will want to use the rvest package to scrape the html table from the website. We will use the read_html() function to read the html data from the website. Next we want to pin the data to just the table on the page using the html_node(). We will then use the html_table() to parse an html table into a data frame. We then set the names for our data frame which will likely be messy and have garbage values. We will clean these up later. Lastly, we need to turn the data table into a tibble with the as_tibble() function to make it easier for us to operate with the data table.

# url for the transfer market site
url <- "https://www.transfermarkt.com/spieler-statistik/wertvollstespieler/marktwertetop?ajax=yw1&page=1"

# Scraping our data from the url. Making a tibble (data frame) out of it
value_tab <- read_html(url) %>%
  html_node(".items") %>%
  html_table(fill = TRUE) %>%
  set_colnames(c("Rank", "Player", "??", "Name", "Position", "Age", "???", "????", "Value")) %>%
  as_tibble() 

value_tab

## # A tibble: 75 x 9
##     Rank Player        `??`  Name     Position     Age `???` `????` Value  
##    <int> <chr>         <lgl> <chr>    <chr>      <int> <lgl> <lgl>  <chr>  
##  1     1 Kylian Mbapp~ NA    Kylian ~ Centre-Fo~    20 NA    NA     200,00~
##  2    NA Kylian Mbapp NA    <NA>     <NA>          NA NA    NA     <NA>   
##  3    NA Centre-Forwa~ NA    <NA>     <NA>          NA NA    NA     <NA>   
##  4     2 NeymarLeft W~ NA    Neymar   Left Wing~    27 NA    NA     180,00~
##  5    NA Neymar        NA    <NA>     <NA>          NA NA    NA     <NA>   
##  6    NA Left Winger   NA    <NA>     <NA>          NA NA    NA     <NA>   
##  7     3 Lionel Messi~ NA    Lionel ~ Right Win~    31 NA    NA     160,00~
##  8    NA Lionel Messi  NA    <NA>     <NA>          NA NA    NA     <NA>   
##  9    NA Right Winger  NA    <NA>     <NA>          NA NA    NA     <NA>   
## 10     4 Mohamed Sala~ NA    Mohamed~ Right Win~    26 NA    NA     150,00~
## # ... with 65 more rows
…
  # binding the old table to the new table to combine them into one
  value_tab <- rbind(value_tab, tab)
}

# Very messy data that we need to fix 
value_tab %>%
  slice(0:200)

## # A tibble: 200 x 9
##     Rank Player        `??`  Name     Position     Age `???` `????` Value  
##    <int> <chr>         <lgl> <chr>    <chr>      <int> <lgl> <lgl>  <chr>  
##  1     1 Kylian Mbapp~ NA    Kylian ~ Centre-Fo~    20 NA    NA     200,00~
##  2    NA Kylian Mbapp NA    <NA>     <NA>          NA NA    NA     <NA>   
##  3    NA Centre-Forwa~ NA    <NA>     <NA>          NA NA    NA     <NA>   
##  4     2 NeymarLeft W~ NA    Neymar   Left Wing~    27 NA    NA     180,00~
##  5    NA Neymar        NA    <NA>     <NA>          NA NA    NA     <NA>   
##  6    NA Left Winger   NA    <NA>     <NA>          NA NA    NA     <NA>   
##  7     3 Lionel Messi~ NA    Lionel ~ Right Win~    31 NA    NA     160,00~
##  8    NA Lionel Messi  NA    <NA>     <NA>          NA NA    NA     <NA>   
##  9    NA Right Winger  NA    <NA>     <NA>          NA NA    NA     <NA>   
## 10     4 Mohamed Sala~ NA    Mohamed~ Right Win~    26 NA    NA     150,00~
## # ... with 190 more rows
…
# Will want to select the correct attributes from our messy table. 
# Will filter it out to make sure no NA's are present in the data table and to get the correct amount of rows.
value_tab <- value_tab %>%
  select(Name, Position, Age, Value) %>%
  filter(is.na(rank) == FALSE)

# Filtering out the Million and the Euro symbol at the end of the market value attribute to make sure it can be turned into a numeric
value_tab$Value <- gsub("([0-9]+),([0-9]{2}) Mill. \200", "\\1\\20000", value_tab$Value)

# Turn the market value attribute into a numeric double
value_tab$Value <- as.numeric(value_tab$Value)

value_tab

## # A tibble: 1,500 x 4
##    Name          Position         Age     Value
##    <chr>         <chr>          <int>     <dbl>
##  1 Kylian Mbapp Centre-Forward    20 200000000
##  2 <NA>          <NA>              NA        NA
##  3 <NA>          <NA>              NA        NA
##  4 Neymar        Left Winger       27 180000000
##  5 <NA>          <NA>              NA        NA
##  6 <NA>          <NA>              NA        NA
##  7 Lionel Messi  Right Winger      31 160000000
##  8 <NA>          <NA>              NA        NA
##  9 <NA>          <NA>              NA        NA
## 10 Mohamed Salah Right Winger      26 150000000
## # ... with 1,490 more rows

Now, we need to prepare the transfer market table to be joined with the FIFA table. We will want to join the two tables together by name, therefore we will change the structure of each players name to help match with the format of the FIFA tables names. We changed a few notable outliers like Sal and Countinho to make sure it fit with the FIFA tables format. We used another gsub() function from the string library to write another regular expression and replace it with the format of (First initial). (Last Name).

# Changing an outlier in the data
value_tab$Name[value_tab$Name == "Sal guez"] <- "Sal"

# Change the names of the data so that we can match it better with the FIFA table. Changing it so that the format is first intial then last name 
value_tab$Name <- gsub("([A-Z])\\S+ (.+)", "\\1. \\2", value_tab$Name)

# Changing another outlier in Coutinho
value_tab$Name[value_tab$Name == "P. Coutinho"] <- "Coutinho"

value_tab

## # A tibble: 1,500 x 4
##    Name      Position         Age     Value
##    <chr>     <chr>          <int>     <dbl>
##  1 K. Mbapp Centre-Forward    20 200000000
##  2 <NA>      <NA>              NA        NA
##  3 <NA>      <NA>              NA        NA
##  4 Neymar    Left Winger       27 180000000
##  5 <NA>      <NA>              NA        NA
##  6 <NA>      <NA>              NA        NA
##  7 L. Messi  Right Winger      31 160000000
##  8 <NA>      <NA>              NA        NA
##  9 <NA>      <NA>              NA        NA
## 10 M. Salah  Right Winger      26 150000000
## # ... with 1,490 more rows
…
